<svg xmlns="http://www.w3.org/2000/svg" width="20" height="19.959" viewBox="0 0 20 19.959">
  <g id="Group_1660" data-name="Group 1660" transform="translate(-4687.755 -1267.996)">
    <path id="Path_239" data-name="Path 239" d="M4689.29,1281.033a8.9,8.9,0,0,1-.535-3.055,9.009,9.009,0,0,1,12.76-8.164" fill="none" stroke="#00a1ed" stroke-linecap="round" stroke-miterlimit="10" stroke-width="2" fill-rule="evenodd"/>
    <path id="Path_240" data-name="Path 240" d="M4706.653,1276.617a9.007,9.007,0,0,1-12.4,9.633" fill="none" stroke="#00a1ed" stroke-linecap="round" stroke-miterlimit="10" stroke-width="2" fill-rule="evenodd"/>
    <path id="Path_241" data-name="Path 241" d="M4703.325,1276.458a.354.354,0,0,0-.332-.234h-3.6l-1.308-3.266a.363.363,0,0,0-.648,0l-1.309,3.266h-3.607a.348.348,0,0,0-.214.623l2.959,2.3-.987,3.609a.345.345,0,0,0,.132.372.352.352,0,0,0,.4.009l2.95-1.963,2.949,1.963a.349.349,0,0,0,.194.057.348.348,0,0,0,.336-.438l-.985-3.609,2.959-2.3A.354.354,0,0,0,4703.325,1276.458Zm-3.689,2.278a.347.347,0,0,0-.124.365l.8,2.938-2.367-1.575a.356.356,0,0,0-.193-.06.349.349,0,0,0-.193.06l-2.369,1.575.8-2.938a.345.345,0,0,0-.122-.365l-2.34-1.816h2.823a.352.352,0,0,0,.325-.217l1.073-2.678,1.072,2.678a.351.351,0,0,0,.324.217h2.825Z" fill="#00a1ed" stroke="#00a1ed" stroke-miterlimit="10" stroke-width="0.5"/>
  </g>
</svg>
