<svg xmlns="http://www.w3.org/2000/svg" width="178.964" height="99.349" viewBox="0 0 178.964 99.349">
  <g id="Group_1611" data-name="Group 1611" transform="translate(-90.518 -940.795)">
    <g id="Group_1609" data-name="Group 1609">
      <path id="Path_1910" data-name="Path 1910" d="M234.1,959.627a4.519,4.519,0,0,0,2.37.668,3.5,3.5,0,0,0,2.09-.562,1.085,1.085,0,0,0,.55-1.146v-.139a3.093,3.093,0,0,0-.324-2.454,2.688,2.688,0,0,0-1.815-.986,4.875,4.875,0,0,0-.843-.071,3.171,3.171,0,0,0-2.949,2.443l-.047.089a1.063,1.063,0,0,0-.159.779,2.146,2.146,0,0,0,1.127,1.379" fill="#00a1ed"/>
      <path id="Path_1911" data-name="Path 1911" d="M269.476,985.7c-.079-.485-1.145-2.9-1.624-3.015a3.765,3.765,0,0,1-1.712.113,2.031,2.031,0,0,1-.827-.464,2.756,2.756,0,0,1-.7-1.212,10.142,10.142,0,0,1-.371-2.094,13.122,13.122,0,0,1,.184-3.227,21.521,21.521,0,0,0-.069-6.261,9.867,9.867,0,0,0-1.4-3.76,4.449,4.449,0,0,0-2.162-1.763,5.609,5.609,0,0,0-2.681-.27,5.253,5.253,0,0,0-3.252,1.67,16.181,16.181,0,0,0-2.569,3.689l-.87,1.685.1-1.868c.068-1.212.128-2.4.169-3.6a1.774,1.774,0,0,0-.377-1.429,1.6,1.6,0,0,0-1.2-.578c-.635-.01-1.263-.017-1.9-.036a2.118,2.118,0,0,0-2.1,1.977c-.119,1.556-.251,3.138-.387,4.724l-.037.129c0,.077-.032.127-.038.193a33.586,33.586,0,0,1-1.191,4.024,34.932,34.932,0,0,1-1.8,4.115,15.31,15.31,0,0,1-2.1,3.19,2.572,2.572,0,0,1-2.328,1.137,1.875,1.875,0,0,1-1.329-1.348,7.715,7.715,0,0,1-.219-3.336c.088-1.142.219-2.4.415-3.861.2-1.382.367-2.713.529-4.006.149-1.331.313-2.419.495-3.337l.322-1.742a1.6,1.6,0,0,0-.29-1.4,1.347,1.347,0,0,0-1.166-.514l-1.943.019a2.128,2.128,0,0,0-1.469.586,2.384,2.384,0,0,0-.86,1.545c-.08.342-.051.167-.276,1.371-.142.872.089-.462-.068.571l-.031.1c-.367,1.152-.907,6.307-.907,6.307l-.054.787c-.047.589-.657,4.281-.671,4.766a10.89,10.89,0,0,0,.349,3.743,8.419,8.419,0,0,0,1.506,3.069,5.639,5.639,0,0,0,2.439,1.82,5.251,5.251,0,0,0,3.244.046,5.5,5.5,0,0,0,2.58-1.491,18.7,18.7,0,0,0,2.325-2.813.811.811,0,0,0,.116-.207l1.124-1.705-.256,1.782c-.112.782-.215,1.568-.346,2.357a1.663,1.663,0,0,0,.234,1.444,1.466,1.466,0,0,0,1.269.558l2.183-.057a2.323,2.323,0,0,0,1.628-.622,2.753,2.753,0,0,0,.959-1.581c.111-.848.2-1.734.29-2.631l.017-.167.06-.034V982.7a26.218,26.218,0,0,1,1.2-5.34,41.622,41.622,0,0,1,1.968-5.01,18.06,18.06,0,0,1,2.181-3.6q1.245-1.548,2.358-1.035c.811.326,1.163,1.162,1.009,2.493-.125,1.141-.328,2.949-.655,5.437a15.491,15.491,0,0,0,.21,5.555,10.389,10.389,0,0,0,1.826,3.976,7.13,7.13,0,0,0,2.953,2.237,6.106,6.106,0,0,0,3.525.368,4.282,4.282,0,0,0,2.226-1.252c.031-.031.072-.072.1-.108a.143.143,0,0,1,.055-.07,1.608,1.608,0,0,0,.084-.658" fill="#00a1ed"/>
      <path id="Path_1912" data-name="Path 1912" d="M234.26,966.75a33.783,33.783,0,0,1-3.851,4.182,12.529,12.529,0,0,1-2.226,1.538,13.465,13.465,0,0,1-2.3.939l-.639.175.038-.408a24.728,24.728,0,0,0,.014-3.6,10.844,10.844,0,0,0-.528-2.817,5.293,5.293,0,0,0-1.009-1.843,1.866,1.866,0,0,0-1.284-.662,5.579,5.579,0,0,0-1.729.3,19.366,19.366,0,0,0-2.489,1.016,9.692,9.692,0,0,0-2.14,1.419,2.361,2.361,0,0,0-.9,1.5c-.224,2.476.225,4.334,1.284,5.535a7.007,7.007,0,0,0,4.269,2.23l.33.042-.065.251c-.617,2.306-2.713,7.711-6.7,9.291a1.828,1.828,0,0,1-1.995-.558,3.536,3.536,0,0,1-.713-2.331,16.349,16.349,0,0,1,.482-4.037c.328-1.522.824-3.49,1.533-5.977.5-1.823,1.064-3.849,1.648-6.042s1.153-4.393,1.709-6.607c.549-2.2,1.05-4.335,1.531-6.4s.879-3.906,1.224-5.535.611-2.938.816-3.952a14.584,14.584,0,0,1,.37-1.74,1.707,1.707,0,0,0-.153-1.405.929.929,0,0,0-.942-.467l-1.81.125a2.179,2.179,0,0,0-1.381.689,3.817,3.817,0,0,0-1,1.707c-.03.13-.113.479-.247,1.067l-.173.776c-.257,1.057-.561,2.39-.949,4.02s-.836,3.467-1.367,5.539-1.106,4.211-1.7,6.425-1.239,4.446-1.918,6.638c-.531,1.844-1.048,3.568-1.527,5.194a19.839,19.839,0,0,1-2.455,3.486,12.988,12.988,0,0,1-3.531,2.684l-.6.319.013-.616a7.585,7.585,0,0,1,1.013-2.841c.639-1.229,1.244-2.532,1.8-3.866a14.244,14.244,0,0,0,1.015-3.808,2.273,2.273,0,0,0-.943-2.391,2.149,2.149,0,0,0-1.584-.138,7.933,7.933,0,0,0-2.556,1.14,21.921,21.921,0,0,0-3.165,2.548,29.56,29.56,0,0,0-3.316,3.887l-1.828,2.531,1.111-2.829c.495-1.249.98-2.5,1.444-3.754a1.607,1.607,0,0,0,.1-1.456c-.119-.192-.351-.438-1.032-.329l-2.071.341a3.841,3.841,0,0,0-1.829.913,4.658,4.658,0,0,0-1.4,1.9c-.663,1.8-1.348,3.615-2.041,5.429l-.15.262a50.974,50.974,0,0,1-4.314,6.189,59.134,59.134,0,0,1-5.251,5.685,40.851,40.851,0,0,1-5.286,4.2,8.3,8.3,0,0,1-4.508,1.61,2.833,2.833,0,0,1-2.707-1.405,6.347,6.347,0,0,1-.7-3.344v-.28l.319-.1a36.2,36.2,0,0,0,5.949-2.4,34.369,34.369,0,0,0,5.014-3.1A22.711,22.711,0,0,0,178,980.018a12.176,12.176,0,0,0,2.148-3.487,5.515,5.515,0,0,0,.461-2.85,3.165,3.165,0,0,0-.981-1.907,4.515,4.515,0,0,0-2.1-.99,6.483,6.483,0,0,0-1.715-.118,8.851,8.851,0,0,0-1.18.16,17.245,17.245,0,0,0-7.46,3.487,27.51,27.51,0,0,0-5.7,6.209,29.3,29.3,0,0,0-3.539,7.233,15.1,15.1,0,0,0-.808,6.536,5.465,5.465,0,0,0,2.438,4.123c1.363.9,3.43,1.03,6.154.389a16.414,16.414,0,0,0,6.021-3.046,53.691,53.691,0,0,0,6.3-5.652c.851-.9,1.721-1.893,2.668-3l1.615-1.936-.918,2.252c-.9,2.182-1.825,4.367-2.774,6.578a1.735,1.735,0,0,0-.227,1.551c.113.2.329.415,1.075.276l2.325-.469a4.985,4.985,0,0,0,2.088-1.075,6.489,6.489,0,0,0,1.633-2.044c.239-.619.532-1.35.886-2.187.275-.681.586-1.51.941-2.456s.753-1.953,1.157-3.029a27.645,27.645,0,0,1,1.76-3.6c.733-1.289,1.532-2.533,2.361-3.7a29.387,29.387,0,0,1,2.578-3.153,8.068,8.068,0,0,1,2.508-1.94l.809-.337-.28.771c-.254.751-.642,1.68-1.122,2.74s-.94,2.149-1.36,3.229c-.427,1.112-.765,2.083-1.005,2.957-.286.977-.2,1.41-.08,1.591.283.47,1.041.692,2.235.628a13.2,13.2,0,0,0,4.348-1.235,18.072,18.072,0,0,0,4.069-2.719l.831-.725L206,980.083c-.12.7-.2,1.325-.26,1.886a12.444,12.444,0,0,0,.423,5.267,4.343,4.343,0,0,0,2.346,2.64,7.494,7.494,0,0,0,4.131.41,9.846,9.846,0,0,0,3.779-1.346,16.979,16.979,0,0,0,6.924-8.148,31.646,31.646,0,0,0,1.369-4.283l.053-.329.521-.12c2.561-.543,6.618-3.169,8.77-4.811-.157-1.055.672-3.552.2-4.5m-70.822,19.281a24.129,24.129,0,0,1,1.064-3.346,23.741,23.741,0,0,1,1.591-3.251,16.524,16.524,0,0,1,2-2.785,9.956,9.956,0,0,1,2.35-1.965,5.123,5.123,0,0,1,3.1-.888,1.982,1.982,0,0,1,1.725,1.212,3.906,3.906,0,0,1-.048,2.47,8.13,8.13,0,0,1-1.752,3.08,17.343,17.343,0,0,1-3.69,3.137,26.109,26.109,0,0,1-5.827,2.733l-.664.231Z" fill="#00a1ed"/>
      <path id="Path_1913" data-name="Path 1913" d="M266.861,992.417a19.191,19.191,0,0,1-3.341-.091c-35.674-2.133-74.526,2.687-115.484,14.292-.092.043-.215.084-.315.121l-1.09.348.322-.774c1.319-3.082,2.468-5.848,2.852-6.878l4.85-12.849q.966-2.575,1.75-4.66l.356-.909c.67-1.779,1.216-3.213,1.643-4.327a20.825,20.825,0,0,1,.936-2.257,1.923,1.923,0,0,0,.154-1.537c-.064-.131-.191-.4-.883-.223l-2.107.491a4.419,4.419,0,0,0-1.9,1.12,5.672,5.672,0,0,0-1.494,2.143,24,24,0,0,0-.957,2.246c-.5,1.258-1.106,2.842-1.85,4.755-.758,1.551-1.674,3.244-2.737,5.043-1.071,1.815-2.18,3.52-3.3,5.081a40.954,40.954,0,0,1-3.2,3.933c-1.086,1.153-1.891,1.7-2.547,1.683a1.173,1.173,0,0,1-.673-.223,1.568,1.568,0,0,1-.442-1.156,11.223,11.223,0,0,1,.931-3.87c.507-1.369,1.126-2.96,1.837-4.682.71-1.705,1.38-3.34,2.006-4.924.649-1.6,1.216-2.948,1.744-4.078l1-2.172a1.965,1.965,0,0,0,.236-1.583c-.065-.126-.2-.387-.891-.191s-1.416.377-2.133.571a4.757,4.757,0,0,0-1.949,1.216,6.42,6.42,0,0,0-1.6,2.243c-.227.434-.633,1.294-1.275,2.748-.609,1.369-1.254,2.895-1.962,4.588-.791,1.492-1.6,2.946-2.522,4.464-1.205,1.984-2.439,3.855-3.647,5.582a43.353,43.353,0,0,1-3.581,4.5c-1.217,1.315-2.1,1.944-2.785,1.984h-.06a.969.969,0,0,1-.645-.211,1.522,1.522,0,0,1-.365-1.216,13.586,13.586,0,0,1,1.165-3.957l.1-.291a6.277,6.277,0,0,1,.351-.866c.126-.308.342-.784.7-1.6,1.083-2.488,7.9-18.326,9.084-21.264,1.2-2.953,2.179-5.409,2.964-7.383.767-1.962,1.181-3.047,1.248-3.206a2.486,2.486,0,0,0,.254-1.73c-.062-.154-.149-.385-.723-.226l-1.937.519a4.173,4.173,0,0,0-1.786,1.18,7.825,7.825,0,0,0-1.589,2.3c-.062.154-.215.526-.451,1.115l-.725,1.742c-.477,1.2-1.084,2.636-1.781,4.337-.8,1.937-7.422,16.991-8.7,19.923-1.008,2.267-1.875,4.233-2.578,5.879s-1.19,2.772-1.421,3.4a18.616,18.616,0,0,0-1.1,4.459,6.347,6.347,0,0,0,.3,3.247,2.1,2.1,0,0,0,1.711,1.3,5.8,5.8,0,0,0,3.439-.952,14.015,14.015,0,0,0,3.5-2.749c1.237-1.28,2.5-2.711,3.709-4.23.779-.962,1.565-2.024,2.489-3.361l.985-1.411-.24,1.671a8.886,8.886,0,0,0-.11,1.15,6.489,6.489,0,0,0,.5,3.179,2.375,2.375,0,0,0,1.786,1.358,5.417,5.417,0,0,0,3.384-.815,15.391,15.391,0,0,0,4.322-3.471,52.8,52.8,0,0,0,4.391-5.511l.713.356c-1.1,2.3-2.227,4.66-3.346,7.065-.288.6-.882,1.948-1.614,3.626l-.89,1.968-.154.059c-1.993.786-3.78,1.548-5.452,2.331a63.275,63.275,0,0,0-13.5,8.181,31.539,31.539,0,0,0-6.06,6.381,16.034,16.034,0,0,0-2.139,4.224,8.744,8.744,0,0,0-.332,4.611,5.848,5.848,0,0,0,2.48,3.675,7.85,7.85,0,0,0,2.3.966,9.155,9.155,0,0,0,2.923.156,11.891,11.891,0,0,0,2.96-.692,16.776,16.776,0,0,0,2.506-1.157,23.777,23.777,0,0,0,3.876-2.8,41.907,41.907,0,0,0,5.533-5.965,62.441,62.441,0,0,0,4.155-6.137c1.064-1.816,2.085-3.744,3.185-6.091l.088-.189.117-.023c.238-.584.638-1.518,1.125-2.617l.054-.135.134-.073c51.966-22.771,121.2-20.925,123.974-20.834.7-.228.787-.4.787-.4a5.256,5.256,0,0,0-1.547-.559m-131.24,25.936c-.649,1.147-1.252,2.164-1.886,3.15v.014a63.265,63.265,0,0,1-3.942,5.524,37.288,37.288,0,0,1-4.618,4.892,17.293,17.293,0,0,1-2.427,1.713,4.705,4.705,0,0,1-1.871.662h-.047a1.863,1.863,0,0,1-.581-.053,3.844,3.844,0,0,1-.661-.332,2.068,2.068,0,0,1-.785-1.278,5.581,5.581,0,0,1,1.31-4.024,22.257,22.257,0,0,1,4.384-4.42,45.62,45.62,0,0,1,5.747-3.831c1.386-.806,2.933-1.619,4.832-2.542l1.157-.537Z" fill="#00a1ed"/>
      <path id="Path_1914" data-name="Path 1914" d="M262.6,1001.754a5.727,5.727,0,0,1-.77.2,7.7,7.7,0,0,1-1.007.067,8.01,8.01,0,0,1-1.036-.058,5.747,5.747,0,0,1-.825-.169,2.687,2.687,0,0,1-.65-.274,2.845,2.845,0,0,1-.472-.339,1.8,1.8,0,0,1-.329-.413,2.332,2.332,0,0,1-.217-.442,1.347,1.347,0,0,1-.124-.467,5.984,5.984,0,0,1-.075-.9v-.528a4.115,4.115,0,0,1,.139-1.231,3.943,3.943,0,0,1,.277-.64,2.058,2.058,0,0,1,.329-.454,2.141,2.141,0,0,1,.472-.38,2.557,2.557,0,0,1,.626-.318,5.542,5.542,0,0,1,1.865-.281,4.368,4.368,0,0,1,1.2.173,4.231,4.231,0,0,1,.972.426,1.051,1.051,0,0,1,.547.495,3.811,3.811,0,0,1,.379.947,6.8,6.8,0,0,1,.271,1.475v.55a3.98,3.98,0,0,1-.034.447,4.925,4.925,0,0,1-.086.485c-.038.127-.1.284-.166.461a2.589,2.589,0,0,1-.279.465,4.667,4.667,0,0,1-.42.377,2.561,2.561,0,0,1-.587.323m.778-2.629.005-.518a5.542,5.542,0,0,0-.169-1.421,2.421,2.421,0,0,0-.716-1.136,2.481,2.481,0,0,0-.708-.369,2.681,2.681,0,0,0-.879-.2c-1.984,0-2.967.952-2.967,2.848,0,1.672.326,2.665.971,2.995a2.6,2.6,0,0,0,.461.174,1.948,1.948,0,0,1,.4.13l.41.038.143.018a4,4,0,0,0,2.086-.445,1.727,1.727,0,0,0,.6-.551,2.323,2.323,0,0,0,.218-.451,1.167,1.167,0,0,0,.09-.376,3.38,3.38,0,0,0,.056-.733m-4.019,1.614.007-.16a2.385,2.385,0,0,0-.134-.877,1.671,1.671,0,0,1-.116-.48v-1.287a2.886,2.886,0,0,0-.091-.617,3.113,3.113,0,0,1-.087-.612.469.469,0,0,1,.385-.466,3.326,3.326,0,0,1,.953-.127,3.952,3.952,0,0,1,.9.083,1.5,1.5,0,0,1,.483.183,1.26,1.26,0,0,1,.28.275,1.065,1.065,0,0,1,.162.562,1.174,1.174,0,0,1-.089.477,1.089,1.089,0,0,1-.238.269,2.282,2.282,0,0,1-.283.138c-.08.041-.171.073-.238.1s-.126.046-.138.067a12.93,12.93,0,0,0,1.274,2.121h.051a.377.377,0,0,0,.094.2.3.3,0,0,1,.108.178c0,.049-.041.077-.131.126a1.007,1.007,0,0,1-.262.062.892.892,0,0,1-.618-.351,2.977,2.977,0,0,1-.523-.746c-.149-.288-.284-.571-.432-.859a2.871,2.871,0,0,0-.317-.545l-.39.071c-.012.17-.028.316-.028.438a4.661,4.661,0,0,0,.155.817,5.362,5.362,0,0,1,.16.951c0,.149-.132.224-.393.224a1.415,1.415,0,0,1-.355-.062c-.1-.036-.148-.089-.148-.154m.373-3.889.067.473a1.807,1.807,0,0,0,.157.85c.867-.165,1.3-.461,1.3-.881v-.022a1.034,1.034,0,0,0-.077-.465.973.973,0,0,0-.161-.176.77.77,0,0,0-.557-.149,1.1,1.1,0,0,0-.564.092.317.317,0,0,0-.161.278" fill="#00a1ed"/>
      <path id="Path_1915" data-name="Path 1915" d="M148.6,949.536c-.085-.076-.305-.313-1.011-.132a412.3,412.3,0,0,0-39.89,11.988,25.926,25.926,0,0,0-8.764,5.043,28.146,28.146,0,0,0-5.594,6.771,20.484,20.484,0,0,0-2.608,6.952,11.388,11.388,0,0,0,.3,5.712,5.159,5.159,0,0,0,2.895,3.168c1.368.6,3.145.482,5.307-.342a9.049,9.049,0,0,0,3.362-2.357,16.144,16.144,0,0,0,2.38-3.292,5.587,5.587,0,0,0,.769-2.568c-.008-.2-.045-.329-.127-.374a1.008,1.008,0,0,0-.7.1,7.908,7.908,0,0,1-4.331.532,4.37,4.37,0,0,1-2.765-1.752,5.1,5.1,0,0,1-.769-3.307A9.09,9.09,0,0,1,98.4,971.67a15.485,15.485,0,0,1,3.5-3.934,19.617,19.617,0,0,1,5.849-3.15c1-.357,2.231-.734,3.658-1.123,1.521-.407,3.113-.782,4.761-1.133l.737-.141S106.4,985.515,104.726,989l-.04.015c-1.023.387-2.051.777-3.057,1.182a2.2,2.2,0,0,0-1.113.75.869.869,0,0,0-.114.774,1.462,1.462,0,0,0,.611.74,3.5,3.5,0,0,0,1.454.411l.393.039c-3.977,8.314-7.522,15.936-9.581,20.264-.867,1.815-4.928,4.053.689,4.053.385,0,.757-.009,1.116-.031a6.826,6.826,0,0,0,5.789-4.093l9.624-22.519c3.205-1.183,6.5-2.363,9.752-3.485.834-.291,1.324-.634,1.394-.994.04-.243.018-.552-.612-.9a6.042,6.042,0,0,0-2.6-.541,10.893,10.893,0,0,0-4.1.759l-1.922.7s10.171-24.123,10.506-24.95l.083-.193.22-.04c2.35-.421,4.719-.81,7.043-1.184,2.262-.362,4.431-.686,6.492-.951,1.966-.274,3.67-.5,5.13-.724,1.49-.235,2.453-.408,2.97-.553a3.532,3.532,0,0,0,1.572-.934,8.041,8.041,0,0,0,1.343-1.8,11.582,11.582,0,0,0,.917-2.146,6.239,6.239,0,0,0,.3-1.927,1.88,1.88,0,0,0-.381-1.179" fill="#00a1ed"/>
    </g>
    <g id="Group_1610" data-name="Group 1610">
      <path id="Path_1916" data-name="Path 1916" d="M196.029,1020.44l.811-2.614h-1.148l.183-1.051h1.314l.574-1.817h-1.2l.179-1.046h1.342l.811-2.56h1.032l-.807,2.56h1.242l.812-2.56h1.035l-.8,2.56h1.132l-.168,1.046h-1.3l-.56,1.817h1.19l-.182,1.051h-1.357l-.8,2.614h-1.061l.823-2.614h-1.244l-.812,2.614Zm3.438-3.665.56-1.817H198.8l-.558,1.817Z" fill="#5a5b5e"/>
      <path id="Path_1917" data-name="Path 1917" d="M203.482,1018.579a3.964,3.964,0,0,0,2.127.6c.907,0,1.747-.489,1.747-1.4,0-.613-.4-1.035-1.33-1.524-1.091-.588-1.915-1.341-1.915-2.462,0-1.8,1.567-2.934,3.469-2.934a4.207,4.207,0,0,1,2.1.475l-.53,1.359a3.516,3.516,0,0,0-1.707-.424c-1.034,0-1.62.6-1.62,1.233s.529,1.021,1.411,1.524a2.8,2.8,0,0,1,1.832,2.5c0,1.886-1.523,3.048-3.635,3.048a4.348,4.348,0,0,1-2.5-.657Z" fill="#5a5b5e"/>
      <path id="Path_1918" data-name="Path 1918" d="M213.746,1011.016l-.727,3.8h3.829l.727-3.8h1.635l-1.788,9.424h-1.636l.8-4.167h-3.846l-.781,4.167h-1.622l1.789-9.424Z" fill="#5a5b5e"/>
      <path id="Path_1919" data-name="Path 1919" d="M228.777,1014.762a6.472,6.472,0,0,1-1.7,4.5,4.7,4.7,0,0,1-3.37,1.328,3.59,3.59,0,0,1-3.705-3.887,6.445,6.445,0,0,1,1.763-4.53,4.769,4.769,0,0,1,3.312-1.314C227.59,1010.862,228.777,1012.612,228.777,1014.762Zm-5.76-1.718a5.471,5.471,0,0,0-1.3,3.577c0,1.428.645,2.6,2.223,2.6a2.552,2.552,0,0,0,1.831-.8,5.622,5.622,0,0,0,1.274-3.605c0-1.244-.435-2.585-2.168-2.585A2.58,2.58,0,0,0,223.017,1013.044Z" fill="#5a5b5e"/>
      <path id="Path_1920" data-name="Path 1920" d="M231.324,1011.171a10.417,10.417,0,0,1,2.277-.224,3.927,3.927,0,0,1,2.4.672,2.2,2.2,0,0,1,.868,1.871,3.23,3.23,0,0,1-1.2,2.557,4.771,4.771,0,0,1-2.951.9,7.482,7.482,0,0,1-.88-.069l-.672,3.565h-1.606Zm.768,4.36a3.833,3.833,0,0,0,.853.085,2.084,2.084,0,0,0,2.294-2c0-.991-.715-1.357-1.638-1.357a3.573,3.573,0,0,0-.894.082Z" fill="#5a5b5e"/>
      <path id="Path_1921" data-name="Path 1921" d="M249.276,1014.762a6.451,6.451,0,0,1-1.707,4.5,4.682,4.682,0,0,1-3.366,1.328,3.589,3.589,0,0,1-3.706-3.887,6.453,6.453,0,0,1,1.762-4.53,4.768,4.768,0,0,1,3.313-1.314C248.089,1010.862,249.276,1012.612,249.276,1014.762Zm-5.759-1.718a5.469,5.469,0,0,0-1.3,3.577c0,1.428.641,2.6,2.221,2.6a2.558,2.558,0,0,0,1.832-.8,5.637,5.637,0,0,0,1.272-3.605c0-1.244-.434-2.585-2.167-2.585A2.58,2.58,0,0,0,243.517,1013.044Z" fill="#5a5b5e"/>
      <path id="Path_1922" data-name="Path 1922" d="M251.851,1011.016h5.2l-.279,1.385h-3.55l-.505,2.654h3.3l-.265,1.372h-3.3l-.756,4.013h-1.636Z" fill="#5a5b5e"/>
      <path id="Path_1923" data-name="Path 1923" d="M258.984,1011.016h5.2l-.277,1.385h-3.551l-.505,2.654h3.3l-.267,1.372h-3.3l-.757,4.013h-1.633Z" fill="#5a5b5e"/>
    </g>
  </g>
</svg>
