<svg xmlns="http://www.w3.org/2000/svg" width="26.121" height="10.625" viewBox="0 0 26.121 10.625">
  <g id="Group_1557" data-name="Group 1557" transform="translate(-929.318 -716.589)">
    <circle id="Ellipse_130" data-name="Ellipse 130" cx="4.813" cy="4.813" r="4.813" transform="translate(929.818 717.089)" fill="none" stroke="#00a1ed" stroke-miterlimit="10" stroke-width="1" stroke-dasharray="1"/>
    <path id="Path_1878" data-name="Path 1878" d="M954.939,721.9a3.4,3.4,0,1,1-3.4-3.4A3.4,3.4,0,0,1,954.939,721.9Z" fill="none" stroke="#aeb0b3" stroke-miterlimit="10" stroke-width="1"/>
  </g>
</svg>
